"id","code","name","effectif_min","effectif_max"
"1","NN","Non-employeur","0","0"
"2","00","Aucun effectif","0","0"
"3","01","Entre 1 et 2 personnes","1","2"
"4","02","Entre 3 et 5 personnes","3","5"
"5","03","Entre 6 et 9 personnes","6","9"
"6","11","Entre 10 et 19 personnes","10","19"
"7","12","Entre 20 et 49 personnes","20","49"
"8","21","Entre 50 et 99 personnes","50","99"
"9","22","Entre 100 et 199 personnes","100","199"
"10","31","Entre 200 et 249 personnes","200","249"
"11","32","Entre 250 et 499 personnes","250","499"
"12","41","Entre 500 et 999 personnes","500","999"
"13","42","Entre 1000 et 1999 personnes","1000","1999"
"14","51","Entre 2000 et 4999 personnes","2000","4999"
"15","52","Entre 5000 et 9999 personnes","5000","9999"
"16","53","10000 personnes ou plus","10000","2147483647"
